module gitlab.com/zeloid/keeper/services/chat

require (
	github.com/davecgh/go-spew v1.1.1 // indirect
	github.com/dustin/go-broadcast v0.0.0-20171205050544-f664265f5a66
	github.com/gin-contrib/cors v0.0.0-20180912121935-a3af05a9b13e
	github.com/gin-contrib/sse v0.0.0-20170109093832-22d885f9ecc7 // indirect
	github.com/gin-gonic/gin v1.3.0
	github.com/golang/protobuf v1.2.0 // indirect
	github.com/json-iterator/go v1.1.5 // indirect
	github.com/manucorporat/stats v0.0.0-20180402194714-3ba42d56d227
	github.com/mattn/go-isatty v0.0.4 // indirect
	github.com/modern-go/concurrent v0.0.0-20180306012644-bacd9c7ef1dd // indirect
	github.com/modern-go/reflect2 v1.0.1 // indirect
	github.com/pmezard/go-difflib v1.0.0 // indirect
	github.com/stretchr/testify v1.2.2 // indirect
	github.com/ugorji/go/codec v0.0.0-20180831062425-e253f1f20942 // indirect
	golang.org/x/net v0.0.0-20180911220305-26e67e76b6c3 // indirect
	golang.org/x/sync v0.0.0-20180314180146-1d60e4601c6f // indirect
	golang.org/x/sys v0.0.0-20180909124046-d0be0721c37e // indirect
	gopkg.in/go-playground/assert.v1 v1.2.1 // indirect
	gopkg.in/go-playground/validator.v8 v8.18.2 // indirect
	gopkg.in/yaml.v2 v2.2.1 // indirect
)
